# Er:YSO site 1 data from Doualan et al., J. Phys. Condens. Matter 7 (1995) 5511
1   0.0
3   42.0
5   86.0
7   104.0
9   172.0
11  424.0
13  481.0
15  513.0
17  6507.0
19  6547.0
21  6596.5
23  6623.0
25  6798.0
27  6852.0
29  6871.0
31  10193.0
33  10271.0
35  10292.0
37  10308.0
39  10369.0
41  10383.0
43  12359.5
45  12459.5
47  12527.5
49  12612.0
51  12649.5
53  15169.0
55  15220.5
57  15360.5
59  15381.5
61  15498.0
63  18267.0
65  18372.0
67  19091.0
69  19116.0
